%YAML 1.1
%TAG !u! tag:unity3d.com,2011:
--- !u!114 &11400000
MonoBehaviour:
  m_ObjectHideFlags: 0
  m_CorrespondingSourceObject: {fileID: 0}
  m_PrefabInstance: {fileID: 0}
  m_PrefabAsset: {fileID: 0}
  m_GameObject: {fileID: 0}
  m_Enabled: 1
  m_EditorHideFlags: 0
  m_Script: {fileID: 11500000, guid: 95e66c6366d904e98bc83428217d4fd7, type: 3}
  m_Name: CapsuleRotation
  m_EditorClassIdentifier: 
  _data:
    _json: '{"graph":{"variables":{"Kind":"Flow","collection":{"$content":[],"$version":"A"},"$version":"A"},"controlInputDefinitions":[],"controlOutputDefinitions":[],"valueInputDefinitions":[],"valueOutputDefinitions":[],"title":"TransformRotation","summary":null,"pan":{"x":-65.5,"y":47.0},"zoom":1.0,"elements":[{"coroutine":false,"defaultValues":{},"position":{"x":-472.0,"y":-169.0},"guid":"fb8677c2-4b5e-422e-819d-bf131112de3c","$version":"A","$type":"Unity.VisualScripting.Update","$id":"9"},{"chainable":false,"parameterNames":["vector","maxLength"],"member":{"name":"ClampMagnitude","parameterTypes":["UnityEngine.Vector3","System.Single"],"targetType":"UnityEngine.Vector3","targetTypeName":"UnityEngine.Vector3","$version":"A"},"defaultValues":{"%vector":{"x":0.0,"y":0.0,"z":0.0,"$type":"UnityEngine.Vector3"},"%maxLength":{"$content":1.0,"$type":"System.Single"}},"position":{"x":-133.0,"y":-150.0},"guid":"e700fda3-c8a1-494f-bbea-511fe9cda421","$version":"A","$type":"Unity.VisualScripting.InvokeMember","$id":"11"},{"specifyFallback":false,"kind":"Object","defaultValues":{"name":{"$content":"RotationAxis","$type":"System.String"},"object":null},"position":{"x":-340.0,"y":-61.0},"guid":"9c174cc6-137a-4c70-913b-043291e81b74","$version":"A","$type":"Unity.VisualScripting.GetVariable","$id":"15"},{"specifyFallback":false,"kind":"Object","defaultValues":{"name":{"$content":"RotationSpeed","$type":"System.String"},"object":null},"position":{"x":-178.0,"y":131.0},"guid":"04422c82-0ce6-45e2-ad14-f63b443c8568","$version":"A","$type":"Unity.VisualScripting.GetVariable","$id":"17"},{"member":{"name":"deltaTime","parameterTypes":null,"targetType":"UnityEngine.Time","targetTypeName":"UnityEngine.Time","$version":"A"},"defaultValues":{},"position":{"x":-415.0,"y":238.0},"guid":"aeaf8b37-35a1-49d8-82c7-31269210541a","$version":"A","$type":"Unity.VisualScripting.GetMember","$id":"19"},{"defaultValues":{},"position":{"x":18.0,"y":222.0},"guid":"129b1abc-d85a-44da-b04d-f67dbb76f7f7","$version":"A","$type":"Unity.VisualScripting.GenericMultiply","$id":"22"},{"defaultValues":{},"position":{"x":157.0,"y":29.0},"guid":"5c903a94-e361-4188-8b86-cffc2a9bc77d","$version":"A","$type":"Unity.VisualScripting.GenericMultiply","$id":"24"},{"chainable":false,"parameterNames":["eulers"],"member":{"name":"Rotate","parameterTypes":["UnityEngine.Vector3"],"targetType":"UnityEngine.Transform","targetTypeName":"UnityEngine.Transform","$version":"A"},"defaultValues":{"target":null,"%eulers":{"x":0.0,"y":0.0,"z":0.0,"$type":"UnityEngine.Vector3"}},"position":{"x":309.0,"y":-158.0},"guid":"c5623d31-64f2-4432-9dbe-47d3a5c21196","$version":"A","$type":"Unity.VisualScripting.InvokeMember","$id":"26"},{"sourceUnit":{"$ref":"9"},"sourceKey":"trigger","destinationUnit":{"$ref":"11"},"destinationKey":"enter","guid":"d932c4dc-c4ab-4c96-92d8-fc692627c1e3","$type":"Unity.VisualScripting.ControlConnection"},{"sourceUnit":{"$ref":"11"},"sourceKey":"exit","destinationUnit":{"$ref":"26"},"destinationKey":"enter","guid":"2e82e26d-30df-4b46-a2b9-2fd87ab0e965","$type":"Unity.VisualScripting.ControlConnection"},{"sourceUnit":{"$ref":"19"},"sourceKey":"value","destinationUnit":{"$ref":"22"},"destinationKey":"b","guid":"1b08739f-1b57-4765-84e3-6ce2eb391634","$type":"Unity.VisualScripting.ValueConnection"},{"sourceUnit":{"$ref":"22"},"sourceKey":"product","destinationUnit":{"$ref":"24"},"destinationKey":"b","guid":"4eb8c473-7324-4062-a95c-da22216fdede","$type":"Unity.VisualScripting.ValueConnection"},{"sourceUnit":{"$ref":"11"},"sourceKey":"result","destinationUnit":{"$ref":"24"},"destinationKey":"a","guid":"5643f552-86ee-4e5f-a53d-8e991aeeeb86","$type":"Unity.VisualScripting.ValueConnection"},{"sourceUnit":{"$ref":"15"},"sourceKey":"value","destinationUnit":{"$ref":"11"},"destinationKey":"%vector","guid":"82890f3c-d3f0-4ec5-a700-2dba32357d11","$type":"Unity.VisualScripting.ValueConnection"},{"sourceUnit":{"$ref":"17"},"sourceKey":"value","destinationUnit":{"$ref":"22"},"destinationKey":"a","guid":"55d50a82-364e-49bd-95f1-0b726fd33d66","$type":"Unity.VisualScripting.ValueConnection"},{"sourceUnit":{"$ref":"24"},"sourceKey":"product","destinationUnit":{"$ref":"26"},"destinationKey":"%eulers","guid":"3077286b-10c0-4ff0-9eb4-a4e213be28f9","$type":"Unity.VisualScripting.ValueConnection"}],"$version":"A"}}'
    _objectReferences: []
