%YAML 1.1
%TAG !u! tag:unity3d.com,2011:
--- !u!114 &11400000
MonoBehaviour:
  m_ObjectHideFlags: 0
  m_CorrespondingSourceObject: {fileID: 0}
  m_PrefabInstance: {fileID: 0}
  m_PrefabAsset: {fileID: 0}
  m_GameObject: {fileID: 0}
  m_Enabled: 1
  m_EditorHideFlags: 0
  m_Script: {fileID: 11500000, guid: 95e66c6366d904e98bc83428217d4fd7, type: 3}
  m_Name: PlayerTankController
  m_EditorClassIdentifier: 
  _data:
    _json: '{"graph":{"variables":{"Kind":"Flow","collection":{"$content":[],"$version":"A"},"$version":"A"},"controlInputDefinitions":[],"controlOutputDefinitions":[],"valueInputDefinitions":[],"valueOutputDefinitions":[],"title":null,"summary":null,"pan":{"x":1182.911,"y":2675.447},"zoom":0.825,"elements":[{"coroutine":false,"defaultValues":{"key":{"$content":"W","$type":"UnityEngine.KeyCode"},"action":{"$content":"Hold","$type":"Unity.VisualScripting.PressState"}},"position":{"x":592.0,"y":1498.0},"guid":"12732053-348d-4dea-b6d7-d86d6ada6cdb","$version":"A","$type":"Unity.VisualScripting.OnKeyboardInput","$id":"9"},{"specifyFallback":false,"kind":"Object","defaultValues":{"name":{"$content":"-","$type":"System.String"},"object":null},"position":{"x":1368.0,"y":2664.0},"guid":"00c4a7da-d71a-4c2c-b206-3a3ae03154c1","$version":"A","$type":"Unity.VisualScripting.GetVariable","$id":"11"},{"specifyFallback":false,"kind":"Object","defaultValues":{"name":{"$content":"A","$type":"System.String"},"object":null},"position":{"x":1489.0,"y":2845.0},"guid":"add43b43-4eff-4a95-9a9b-cb513d0ea681","$version":"A","$type":"Unity.VisualScripting.GetVariable","$id":"13"},{"defaultValues":{},"position":{"x":1824.0,"y":2705.0},"guid":"86e3e86d-6e07-43b1-aef7-cd717901e481","$version":"A","$type":"Unity.VisualScripting.GenericMultiply","$id":"15"},{"specifyFallback":false,"kind":"Object","defaultValues":{"name":{"$content":"+","$type":"System.String"},"object":null},"position":{"x":959.0,"y":3234.0},"guid":"86f87a7c-616f-4ab1-a004-64aa849d315f","$version":"A","$type":"Unity.VisualScripting.GetVariable","$id":"17"},{"defaultValues":{},"position":{"x":1395.0,"y":2404.0},"guid":"962e0fe3-b556-4687-ad14-474466fe2cac","$version":"A","$type":"Unity.VisualScripting.GenericMultiply","$id":"19"},{"chainable":false,"parameterNames":["vector","maxLength"],"member":{"name":"ClampMagnitude","parameterTypes":["UnityEngine.Vector3","System.Single"],"targetType":"UnityEngine.Vector3","targetTypeName":"UnityEngine.Vector3","$version":"A"},"defaultValues":{"%vector":{"x":0.0,"y":0.0,"z":0.0,"$type":"UnityEngine.Vector3"},"%maxLength":{"$content":1.0,"$type":"System.Single"}},"position":{"x":810.0,"y":1508.0},"guid":"1e84ddcf-bf12-442f-a65c-eff03d2a6fd7","$version":"A","$type":"Unity.VisualScripting.InvokeMember","$id":"21"},{"specifyFallback":false,"kind":"Object","defaultValues":{"name":{"$content":"MoveAxis","$type":"System.String"},"object":null},"position":{"x":994.0,"y":2234.0},"guid":"c77d74ef-ae87-4873-9a75-542743ed7ebd","$version":"A","$type":"Unity.VisualScripting.GetVariable","$id":"25"},{"defaultValues":{},"position":{"x":1544.0,"y":2285.0},"guid":"d1336b95-57b3-415b-a0cc-bc8d7f8a9511","$version":"A","$type":"Unity.VisualScripting.GenericMultiply","$id":"27"},{"member":{"name":"deltaTime","parameterTypes":null,"targetType":"UnityEngine.Time","targetTypeName":"UnityEngine.Time","$version":"A"},"defaultValues":{},"position":{"x":745.0,"y":1867.0},"guid":"87f43f4e-c1af-4472-8740-2c274e4d38e1","$version":"A","$type":"Unity.VisualScripting.GetMember","$id":"29"},{"member":{"name":"deltaTime","parameterTypes":null,"targetType":"UnityEngine.Time","targetTypeName":"UnityEngine.Time","$version":"A"},"defaultValues":{},"position":{"x":1036.0,"y":2423.0},"guid":"f19834ce-ea44-4d2d-a11e-5d860a88b60b","$version":"A","$type":"Unity.VisualScripting.GetMember","$id":"32"},{"specifyFallback":false,"kind":"Object","defaultValues":{"name":{"$content":"W","$type":"System.String"},"object":null},"position":{"x":891.0,"y":1697.0},"guid":"40f9bde7-d882-47f1-affa-e287d483876b","$version":"A","$type":"Unity.VisualScripting.GetVariable","$id":"35"},{"specifyFallback":false,"kind":"Object","defaultValues":{"name":{"$content":"MoveAxis","$type":"System.String"},"object":null},"position":{"x":600.0,"y":1671.0},"guid":"d934b1a2-7945-4625-a8da-18483b0fd28c","$version":"A","$type":"Unity.VisualScripting.GetVariable","$id":"37"},{"coroutine":false,"defaultValues":{"key":{"$content":"D","$type":"UnityEngine.KeyCode"},"action":{"$content":"Hold","$type":"Unity.VisualScripting.PressState"}},"position":{"x":814.0,"y":3072.0},"guid":"d2528ad3-e6b9-49cd-96fe-6f701149798f","$version":"A","$type":"Unity.VisualScripting.OnKeyboardInput","$id":"39"},{"member":{"name":"deltaTime","parameterTypes":null,"targetType":"UnityEngine.Time","targetTypeName":"UnityEngine.Time","$version":"A"},"defaultValues":{},"position":{"x":1488.0,"y":2974.0},"guid":"8516b59f-0f0b-4bd8-ae20-727231c7e6b3","$version":"A","$type":"Unity.VisualScripting.GetMember","$id":"41"},{"chainable":false,"parameterNames":["vector","maxLength"],"member":{"name":"ClampMagnitude","parameterTypes":["UnityEngine.Vector3","System.Single"],"targetType":"UnityEngine.Vector3","targetTypeName":"UnityEngine.Vector3","$version":"A"},"defaultValues":{"%vector":{"x":0.0,"y":0.0,"z":0.0,"$type":"UnityEngine.Vector3"},"%maxLength":{"$content":-4.0,"$type":"System.Single"}},"position":{"x":1533.0,"y":2561.0},"guid":"019c8442-bb8b-4b0d-860f-ccf20e854e8c","$version":"A","$type":"Unity.VisualScripting.InvokeMember","$id":"44"},{"member":{"name":"deltaTime","parameterTypes":null,"targetType":"UnityEngine.Time","targetTypeName":"UnityEngine.Time","$version":"A"},"defaultValues":{},"position":{"x":1014.0,"y":3465.0},"guid":"7394795f-f71a-4820-a0ac-ba5384536917","$version":"A","$type":"Unity.VisualScripting.GetMember","$id":"48"},{"defaultValues":{},"position":{"x":1668.0,"y":2877.0},"guid":"770b6c2b-2f03-43fd-9cd1-71d76347aeb5","$version":"A","$type":"Unity.VisualScripting.GenericMultiply","$id":"51"},{"chainable":false,"parameterNames":["eulers"],"member":{"name":"Rotate","parameterTypes":["UnityEngine.Vector3"],"targetType":"UnityEngine.Transform","targetTypeName":"UnityEngine.Transform","$version":"A"},"defaultValues":{"target":null,"%eulers":{"x":0.0,"y":0.0,"z":0.0,"$type":"UnityEngine.Vector3"}},"position":{"x":1974.0,"y":2514.0},"guid":"32910150-9493-400a-bd78-a318344033c3","$version":"A","$type":"Unity.VisualScripting.InvokeMember","$id":"53"},{"chainable":false,"parameterNames":["translation"],"member":{"name":"Translate","parameterTypes":["UnityEngine.Vector3"],"targetType":"UnityEngine.Transform","targetTypeName":"UnityEngine.Transform","$version":"A"},"defaultValues":{"target":null,"%translation":{"x":0.0,"y":0.0,"z":0.0,"$type":"UnityEngine.Vector3"}},"position":{"x":1699.0,"y":2040.0},"guid":"f3198c9f-1174-4d99-aeec-b9a796491ed3","$version":"A","$type":"Unity.VisualScripting.InvokeMember","$id":"57"},{"coroutine":false,"defaultValues":{"key":{"$content":"S","$type":"UnityEngine.KeyCode"},"action":{"$content":"Hold","$type":"Unity.VisualScripting.PressState"}},"position":{"x":678.0,"y":2042.0},"guid":"057d596f-477e-4d93-9860-0ab8c5a5e226","$version":"A","$type":"Unity.VisualScripting.OnKeyboardInput","$id":"61"},{"chainable":false,"parameterNames":["vector","maxLength"],"member":{"name":"ClampMagnitude","parameterTypes":["UnityEngine.Vector3","System.Single"],"targetType":"UnityEngine.Vector3","targetTypeName":"UnityEngine.Vector3","$version":"A"},"defaultValues":{"%vector":{"x":0.0,"y":0.0,"z":0.0,"$type":"UnityEngine.Vector3"},"%maxLength":{"$content":-1.0,"$type":"System.Single"}},"position":{"x":1245.0,"y":2039.0},"guid":"d1e37c98-beb6-4e2a-968c-55e3ac2f851f","$version":"A","$type":"Unity.VisualScripting.InvokeMember","$id":"63"},{"defaultValues":{},"position":{"x":1447.0,"y":3449.0},"guid":"6e4aabc0-4513-4032-967f-11c7f11a632b","$version":"A","$type":"Unity.VisualScripting.GenericMultiply","$id":"67"},{"specifyFallback":false,"kind":"Object","defaultValues":{"name":{"$content":"S","$type":"System.String"},"object":null},"position":{"x":1225.0,"y":2235.0},"guid":"ec21fe33-942c-4b60-98ca-b42012549844","$version":"A","$type":"Unity.VisualScripting.GetVariable","$id":"69"},{"chainable":false,"parameterNames":["translation"],"member":{"name":"Translate","parameterTypes":["UnityEngine.Vector3"],"targetType":"UnityEngine.Transform","targetTypeName":"UnityEngine.Transform","$version":"A"},"defaultValues":{"target":null,"%translation":{"x":0.0,"y":0.0,"z":0.0,"$type":"UnityEngine.Vector3"}},"position":{"x":1100.0,"y":1471.0},"guid":"1be15a40-9a90-47b2-b69b-890b51157bfa","$version":"A","$type":"Unity.VisualScripting.InvokeMember","$id":"71"},{"defaultValues":{},"position":{"x":1586.0,"y":3256.0},"guid":"69655f14-6f5f-4907-8b30-402e56578f61","$version":"A","$type":"Unity.VisualScripting.GenericMultiply","$id":"75"},{"coroutine":false,"defaultValues":{"key":{"$content":"A","$type":"UnityEngine.KeyCode"},"action":{"$content":"Hold","$type":"Unity.VisualScripting.PressState"}},"position":{"x":767.0,"y":2566.0},"guid":"b49f6ce2-155c-4583-a16c-15a2bc2b4dc3","$version":"A","$type":"Unity.VisualScripting.OnKeyboardInput","$id":"77"},{"chainable":false,"parameterNames":["vector","maxLength"],"member":{"name":"ClampMagnitude","parameterTypes":["UnityEngine.Vector3","System.Single"],"targetType":"UnityEngine.Vector3","targetTypeName":"UnityEngine.Vector3","$version":"A"},"defaultValues":{"%vector":{"x":0.0,"y":0.0,"z":0.0,"$type":"UnityEngine.Vector3"},"%maxLength":{"$content":4.0,"$type":"System.Single"}},"position":{"x":1244.0,"y":3076.0},"guid":"9006912c-ee04-4c5b-afd8-97b8320ec287","$version":"A","$type":"Unity.VisualScripting.InvokeMember","$id":"79"},{"chainable":false,"parameterNames":["eulers"],"member":{"name":"Rotate","parameterTypes":["UnityEngine.Vector3"],"targetType":"UnityEngine.Transform","targetTypeName":"UnityEngine.Transform","$version":"A"},"defaultValues":{"target":null,"%eulers":{"x":0.0,"y":0.0,"z":0.0,"$type":"UnityEngine.Vector3"}},"position":{"x":1769.0,"y":3082.0},"guid":"d9022531-ba73-4f46-8603-156ec26f98a7","$version":"A","$type":"Unity.VisualScripting.InvokeMember","$id":"83"},{"specifyFallback":false,"kind":"Object","defaultValues":{"name":{"$content":"D","$type":"System.String"},"object":null},"position":{"x":1282.0,"y":3252.0},"guid":"03ce4cd5-0859-4888-9ed7-6279782d4e00","$version":"A","$type":"Unity.VisualScripting.GetVariable","$id":"87"},{"defaultValues":{},"position":{"x":1074.0,"y":1809.0},"guid":"17f52438-5ded-430c-82ee-59b8b5939000","$version":"A","$type":"Unity.VisualScripting.GenericMultiply","$id":"89"},{"defaultValues":{},"position":{"x":1120.0,"y":1640.0},"guid":"ecc6669c-25a3-4900-a083-d2a05f8ab242","$version":"A","$type":"Unity.VisualScripting.GenericMultiply","$id":"91"},{"sourceUnit":{"$ref":"44"},"sourceKey":"exit","destinationUnit":{"$ref":"53"},"destinationKey":"enter","guid":"b99d26a8-1e2e-4e22-942c-832d6b3a6fff","$type":"Unity.VisualScripting.ControlConnection"},{"sourceUnit":{"$ref":"79"},"sourceKey":"exit","destinationUnit":{"$ref":"83"},"destinationKey":"enter","guid":"0d46d2d2-e6b5-45d4-98af-5f61bfd654c4","$type":"Unity.VisualScripting.ControlConnection"},{"sourceUnit":{"$ref":"21"},"sourceKey":"exit","destinationUnit":{"$ref":"71"},"destinationKey":"enter","guid":"544ca3d0-530b-43b8-bdf4-768b8ed0dd75","$type":"Unity.VisualScripting.ControlConnection"},{"sourceUnit":{"$ref":"9"},"sourceKey":"trigger","destinationUnit":{"$ref":"21"},"destinationKey":"enter","guid":"8d81eecf-a1ab-432b-9a40-ccb96918ad60","$type":"Unity.VisualScripting.ControlConnection"},{"sourceUnit":{"$ref":"63"},"sourceKey":"exit","destinationUnit":{"$ref":"57"},"destinationKey":"enter","guid":"4ee7c2af-d68b-43c5-8469-14478a3f1016","$type":"Unity.VisualScripting.ControlConnection"},{"sourceUnit":{"$ref":"61"},"sourceKey":"trigger","destinationUnit":{"$ref":"63"},"destinationKey":"enter","guid":"a13c0821-45f0-4235-b041-f654e6a41d34","$type":"Unity.VisualScripting.ControlConnection"},{"sourceUnit":{"$ref":"39"},"sourceKey":"trigger","destinationUnit":{"$ref":"79"},"destinationKey":"enter","guid":"192d1ca4-04a8-4303-9de4-575ef8b6ec6e","$type":"Unity.VisualScripting.ControlConnection"},{"sourceUnit":{"$ref":"77"},"sourceKey":"trigger","destinationUnit":{"$ref":"44"},"destinationKey":"enter","guid":"17316d01-a205-4f51-a38e-27359bcdfd16","$type":"Unity.VisualScripting.ControlConnection"},{"sourceUnit":{"$ref":"67"},"sourceKey":"product","destinationUnit":{"$ref":"75"},"destinationKey":"b","guid":"8e554c6d-c7fd-48ce-94ea-dfa09e3e675e","$type":"Unity.VisualScripting.ValueConnection"},{"sourceUnit":{"$ref":"91"},"sourceKey":"product","destinationUnit":{"$ref":"71"},"destinationKey":"%translation","guid":"da3b981d-df83-4c92-9885-4e30f8e4a29f","$type":"Unity.VisualScripting.ValueConnection"},{"sourceUnit":{"$ref":"21"},"sourceKey":"result","destinationUnit":{"$ref":"91"},"destinationKey":"a","guid":"0a1052d4-108c-47fb-ad24-c7f3683ea825","$type":"Unity.VisualScripting.ValueConnection"},{"sourceUnit":{"$ref":"35"},"sourceKey":"value","destinationUnit":{"$ref":"89"},"destinationKey":"a","guid":"ec47b240-fa6d-4c0f-b8b6-71c34a2e0bb4","$type":"Unity.VisualScripting.ValueConnection"},{"sourceUnit":{"$ref":"69"},"sourceKey":"value","destinationUnit":{"$ref":"19"},"destinationKey":"a","guid":"60095368-0d5f-4e18-9aa7-971e0c3bbbc0","$type":"Unity.VisualScripting.ValueConnection"},{"sourceUnit":{"$ref":"37"},"sourceKey":"value","destinationUnit":{"$ref":"21"},"destinationKey":"%vector","guid":"aa5906f5-831d-4857-9ee8-57bb5bb78a2c","$type":"Unity.VisualScripting.ValueConnection"},{"sourceUnit":{"$ref":"75"},"sourceKey":"product","destinationUnit":{"$ref":"83"},"destinationKey":"%eulers","guid":"1571e0d7-b9c8-4a27-b2d7-8d20f62ef09b","$type":"Unity.VisualScripting.ValueConnection"},{"sourceUnit":{"$ref":"11"},"sourceKey":"value","destinationUnit":{"$ref":"44"},"destinationKey":"%vector","guid":"6be89132-a098-4f1b-82a1-2e535e182292","$type":"Unity.VisualScripting.ValueConnection"},{"sourceUnit":{"$ref":"48"},"sourceKey":"value","destinationUnit":{"$ref":"67"},"destinationKey":"b","guid":"8589b0d2-4cc1-4d31-b5ee-cada62df2ed0","$type":"Unity.VisualScripting.ValueConnection"},{"sourceUnit":{"$ref":"32"},"sourceKey":"value","destinationUnit":{"$ref":"19"},"destinationKey":"b","guid":"a1617f63-3437-4a84-9249-e5f6745e8511","$type":"Unity.VisualScripting.ValueConnection"},{"sourceUnit":{"$ref":"87"},"sourceKey":"value","destinationUnit":{"$ref":"67"},"destinationKey":"a","guid":"5e914deb-e3a2-436a-b136-88b600fe20d9","$type":"Unity.VisualScripting.ValueConnection"},{"sourceUnit":{"$ref":"44"},"sourceKey":"result","destinationUnit":{"$ref":"15"},"destinationKey":"a","guid":"80380a6d-8723-4a50-9f57-3d5556ebf3f1","$type":"Unity.VisualScripting.ValueConnection"},{"sourceUnit":{"$ref":"19"},"sourceKey":"product","destinationUnit":{"$ref":"27"},"destinationKey":"b","guid":"d55f1354-0b2e-42f9-8353-b07002d578a5","$type":"Unity.VisualScripting.ValueConnection"},{"sourceUnit":{"$ref":"29"},"sourceKey":"value","destinationUnit":{"$ref":"89"},"destinationKey":"b","guid":"eef06112-1eb3-4e34-8fb5-32c5dd2bab16","$type":"Unity.VisualScripting.ValueConnection"},{"sourceUnit":{"$ref":"51"},"sourceKey":"product","destinationUnit":{"$ref":"15"},"destinationKey":"b","guid":"3fcdba11-af66-4d57-927b-fe4bd500f897","$type":"Unity.VisualScripting.ValueConnection"},{"sourceUnit":{"$ref":"27"},"sourceKey":"product","destinationUnit":{"$ref":"57"},"destinationKey":"%translation","guid":"065d775c-2c05-4491-aa97-1a6f3af366a4","$type":"Unity.VisualScripting.ValueConnection"},{"sourceUnit":{"$ref":"17"},"sourceKey":"value","destinationUnit":{"$ref":"79"},"destinationKey":"%vector","guid":"88179853-701f-4120-afde-8121767b4897","$type":"Unity.VisualScripting.ValueConnection"},{"sourceUnit":{"$ref":"63"},"sourceKey":"result","destinationUnit":{"$ref":"27"},"destinationKey":"a","guid":"1cdec329-3c48-47d6-956e-f715931bc7cd","$type":"Unity.VisualScripting.ValueConnection"},{"sourceUnit":{"$ref":"79"},"sourceKey":"result","destinationUnit":{"$ref":"75"},"destinationKey":"a","guid":"fd2a40bc-9b57-45d2-972d-091df2c7a249","$type":"Unity.VisualScripting.ValueConnection"},{"sourceUnit":{"$ref":"41"},"sourceKey":"value","destinationUnit":{"$ref":"51"},"destinationKey":"b","guid":"f2caf57a-bd44-4185-adc5-9fdcf1c63914","$type":"Unity.VisualScripting.ValueConnection"},{"sourceUnit":{"$ref":"25"},"sourceKey":"value","destinationUnit":{"$ref":"63"},"destinationKey":"%vector","guid":"5a139adb-3815-4f76-a755-06155fe9c8e3","$type":"Unity.VisualScripting.ValueConnection"},{"sourceUnit":{"$ref":"89"},"sourceKey":"product","destinationUnit":{"$ref":"91"},"destinationKey":"b","guid":"7cc64107-6da2-4090-9e56-f1a924f84742","$type":"Unity.VisualScripting.ValueConnection"},{"sourceUnit":{"$ref":"13"},"sourceKey":"value","destinationUnit":{"$ref":"51"},"destinationKey":"a","guid":"2f7cd7a0-9422-4f87-b467-6da6d09d62e4","$type":"Unity.VisualScripting.ValueConnection"},{"sourceUnit":{"$ref":"15"},"sourceKey":"product","destinationUnit":{"$ref":"53"},"destinationKey":"%eulers","guid":"593a44d4-fc8a-446b-8311-370325bf1d43","$type":"Unity.VisualScripting.ValueConnection"}],"$version":"A"}}'
    _objectReferences: []
